…
## search google for 100 'rstats' hits in past year
googler("rstats", count = 100, time = "y1")
#> # A tibble: 99 x 4
#>    abstract                       matches    title                  url                   
#>    <chr>                          <list>     <chr>                  <chr>                 
#>  1 Looking for teaching material… <df[,2] [… #rstats hashtag on Tw… https://twitter.com/h…
#>  2 Excited to announce that I've… <NULL>     #Rstats - Twitter Sea… https://twitter.com/s…
#>  3 Hello,. Is there an R package… <NULL>     rstats - Reddit        https://www.reddit.co…
#>  4 Welcome to RStats Institute! … <df[,2] [… RStats Institute - Mi… https://www.missouris…
#>  5 RStats Glossary. Find definit… <df[,2] [… Stats Tools - RStats … https://www.missouris…
#>  6 This past year in R has been … <NULL>     My 2018 #rstats year … https://leonawicz.git…
#>  7 Rstats. Working with sparse m… <df[,2] [… Rstats | GGVY          https://ggvy.cl/tags/…
#>  8 A Modern and Flexible Neo4J D… <df[,2] [… neo4j-rstats/neo4r: A… https://github.com/ne…
#>  9 List of courses teaching R. C… <df[,2] [… rstudio-education/rst… https://github.com/rs…
#> 10 Download. Current Version: 13… <df[,2] [… R Statistics - Univer… http://depts.washingt…
#> # … with 89 more rows
…
